"Source:","/Users/darrenbratten/Desktop/2202_fab-academy/_01_Repository/digital-fabrication_2022/assets/networking-and-communication-assets/RGB_unit/RGB_unit.kicad_sch"
"Date:","Friday 13 May 2022 at 18:37:48"
"Tool:","Eeschema (6.0.2-0)"
"Generator:","/Applications/KiCad/KiCad.app/Contents/SharedSupport/plugins/bom_csv_grouped_by_value_with_fp.py"
"Component Count:","11"
"Ref","Qnty","Value","Cmp name","Footprint","Description","Vendor"
"C1, ","1","1uF","C_1206","fab:C_1206","Unpolarized capacitor, SMD, 1206",""
"D1, ","1","LED_1206","LED_1206","fab:LED_1206","Light emitting diode, Lite-On Inc. LTST, SMD",""
"D2, ","1","D_Schottky","D_Schottky","fab:SOD-123","Schottky diode",""
"D3, ","1","LED_RGB_PLCC-4","LED_RGB_PLCC-4","fab:PLCC-4","RGB LED, red/anode/blue/green, Red, Green, Blue (RGB) 622nm Red, 528nm Green, 468nm Blue LED Indication - Discrete 2V Red, 3.2V Green, 3.2V Blue 4-PLCC",""
"J1, ","1","Conn_PinHeader_2x02_P2.54mm_Vertical_SMD","Conn_PinHeader_2x02_P2.54mm_Vertical_SMD","fab:PinHeader_2x02_P2.54mm_Vertical_SMD","Connector Header Surface Mount 4 position 0.100"" (2.54mm)",""
"J2, ","1","Conn_PinHeader_UPDI_2x03_P2.54mm_Vertical_SMD","Conn_PinHeader_UPDI_2x03_P2.54mm_Vertical_SMD","fab:PinHeader_2x03_P2.54mm_Vertical_SMD","Connector Header Surface Mount 6 position 0.100"" (2.54mm) Fab UPDI connector standard 2022",""
"R1, ","1","10k OHM","R_1206","fab:R_1206","Resistor",""
"R2, ","1","150 OHM","R_1206","fab:R_1206","Resistor",""
"R3, R4, ","2","90 OHM","R_1206","fab:R_1206","Resistor",""
"U1, ","1","412","Microcontroller_ATtiny412_SSFR","fab:SOIC-8_3.9x4.9mm_P1.27mm","AVR tinyAVR™ 1 Microcontroller IC 8-Bit 20MHz 4KB (4K x 8) FLASH 8-SOIC",""
