(kicad_pcb (version 20211014) (generator pcbnew)

  (general
    (thickness 1.6)
  )

  (paper "A4")
  (layers
    (0 "F.Cu" signal)
    (31 "B.Cu" signal)
    (32 "B.Adhes" user "B.Adhesive")
    (33 "F.Adhes" user "F.Adhesive")
    (34 "B.Paste" user)
    (35 "F.Paste" user)
    (36 "B.SilkS" user "B.Silkscreen")
    (37 "F.SilkS" user "F.Silkscreen")
    (38 "B.Mask" user)
    (39 "F.Mask" user)
    (40 "Dwgs.User" user "User.Drawings")
    (41 "Cmts.User" user "User.Comments")
    (42 "Eco1.User" user "User.Eco1")
    (43 "Eco2.User" user "User.Eco2")
    (44 "Edge.Cuts" user)
    (45 "Margin" user)
    (46 "B.CrtYd" user "B.Courtyard")
    (47 "F.CrtYd" user "F.Courtyard")
    (48 "B.Fab" user)
    (49 "F.Fab" user)
    (50 "User.1" user)
    (51 "User.2" user)
    (52 "User.3" user)
    (53 "User.4" user)
    (54 "User.5" user)
    (55 "User.6" user)
    (56 "User.7" user)
    (57 "User.8" user)
    (58 "User.9" user)
  )

  (setup
    (stackup
      (layer "F.SilkS" (type "Top Silk Screen"))
      (layer "F.Paste" (type "Top Solder Paste"))
      (layer "F.Mask" (type "Top Solder Mask") (thickness 0.01))
      (layer "F.Cu" (type "copper") (thickness 0.035))
      (layer "dielectric 1" (type "core") (thickness 1.51) (material "FR4") (epsilon_r 4.5) (loss_tangent 0.02))
      (layer "B.Cu" (type "copper") (thickness 0.035))
      (layer "B.Mask" (type "Bottom Solder Mask") (thickness 0.01))
      (layer "B.Paste" (type "Bottom Solder Paste"))
      (layer "B.SilkS" (type "Bottom Silk Screen"))
      (copper_finish "None")
      (dielectric_constraints no)
    )
    (pad_to_mask_clearance 0)
    (pcbplotparams
      (layerselection 0x00010c0_ffffffff)
      (disableapertmacros false)
      (usegerberextensions false)
      (usegerberattributes true)
      (usegerberadvancedattributes true)
      (creategerberjobfile false)
      (svguseinch false)
      (svgprecision 6)
      (excludeedgelayer false)
      (plotframeref false)
      (viasonmask false)
      (mode 1)
      (useauxorigin false)
      (hpglpennumber 1)
      (hpglpenspeed 20)
      (hpglpendiameter 15.000000)
      (dxfpolygonmode true)
      (dxfimperialunits true)
      (dxfusepcbnewfont true)
      (psnegative false)
      (psa4output false)
      (plotreference false)
      (plotvalue false)
      (plotinvisibletext false)
      (sketchpadsonfab false)
      (subtractmaskfromsilk false)
      (outputformat 1)
      (mirror false)
      (drillshape 0)
      (scaleselection 1)
      (outputdirectory "gerbers-3/")
    )
  )

  (net 0 "")
  (net 1 "GND")
  (net 2 "+5V")
  (net 3 "Net-(D1-Pad2)")
  (net 4 "led")
  (net 5 "Net-(D2-Pad1)")
  (net 6 "unconnected-(J1-Pad2)")
  (net 7 "TX")
  (net 8 "RX")
  (net 9 "unconnected-(J1-Pad6)")
  (net 10 "UPDI")
  (net 11 "pot")
  (net 12 "button")

  (footprint "fab:R_1206" (layer "F.Cu")
    (tedit 60020482) (tstamp 09e702fe-159a-4c14-8124-4430501dd9ac)
    (at 165.912 87.381)
    (descr "Resistor SMD 1206, hand soldering")
    (tags "resistor 1206")
    (property "Sheetfile" "Boombox.kicad_sch")
    (property "Sheetname" "")
    (path "/2101b303-cfb1-4f12-96b1-76909e4cc846")
    (attr smd)
    (fp_text reference "R1" (at 0 -1.85) (layer "F.SilkS")
      (effects (font (size 1 1) (thickness 0.15)))
      (tstamp d89e2580-b022-4d48-a37e-c7e9e38b0bcb)
    )
    (fp_text value "499OHM" (at 0 1.9) (layer "F.Fab")
      (effects (font (size 1 1) (thickness 0.15)))
      (tstamp c13d1029-7553-4c24-ad81-124b15c90075)
    )
    (fp_text user "${REFERENCE}" (at 0 0) (layer "F.Fab")
      (effects (font (size 0.7 0.7) (thickness 0.105)))
      (tstamp 946b8964-465e-4fe4-adac-47e599719e07)
    )
    (fp_line (start -1 -1.07) (end 1 -1.07) (layer "F.SilkS") (width 0.12) (tstamp 276dd34e-fc62-4ec0-a853-7be08f169b56))
    (fp_line (start 1 1.07) (end -1 1.07) (layer "F.SilkS") (width 0.12) (tstamp 3058e00c-72e3-4d3a-a314-21d099cf9835))
    (fp_line (start -3.25 -1.11) (end -3.25 1.1) (layer "F.CrtYd") (width 0.05) (tstamp 87f7a973-810d-415b-bdda-ed5637e0d859))
    (fp_line (start 3.25 1.1) (end 3.25 -1.11) (layer "F.CrtYd") (width 0.05) (tstamp b83c0b65-9035-44f4-9939-bf63baaf6b52))
    (fp_line (start -3.25 -1.11) (end 3.25 -1.11) (layer "F.CrtYd") (width 0.05) (tstamp c0f49285-51e4-4689-9a15-7f7a4f2ae40a))
    (fp_line (start 3.25 1.1) (end -3.25 1.1) (layer "F.CrtYd") (width 0.05) (tstamp f3809b97-e1da-4ef0-9637-e31738157da5))
    (fp_line (start 1.6 -0.8) (end 1.6 0.8) (layer "F.Fab") (width 0.1) (tstamp 29796def-9154-41c8-87b8-36b82da45deb))
    (fp_line (start -1.6 -0.8) (end 1.6 -0.8) (layer "F.Fab") (width 0.1) (tstamp ab61370c-683a-4ecc-ba05-9adc36d4d8da))
    (fp_line (start -1.6 0.8) (end -1.6 -0.8) (layer "F.Fab") (width 0.1) (tstamp de51e245-a27c-4a43-a9d6-150e7ff82e45))
    (fp_line (start 1.6 0.8) (end -1.6 0.8) (layer "F.Fab") (width 0.1) (tstamp dfd2c505-fd2b-45b2-88dc-289c6968ef97))
    (pad "1" smd rect locked (at -2 0) (size 2 1.7) (layers "F.Cu" "F.Paste" "F.Mask")
      (net 5 "Net-(D2-Pad1)") (pintype "passive") (tstamp 49bb3b6b-654d-4e70-a4aa-1f1efa32c9ab))
    (pad "2" smd rect locked (at 2 0) (size 2 1.7) (layers "F.Cu" "F.Paste" "F.Mask")
      (net 1 "GND") (pintype "passive") (tstamp 831181f3-e07e-4359-85a3-43a55598e402))
    (model "${FAB}/fab.3dshapes/R_1206.step"
      (offset (xyz 0 0 0))
      (scale (xyz 1 1 1))
      (rotate (xyz 0 0 0))
    )
  )

  (footprint "fab:Button_Omron_B3SN_6x6mm" (layer "F.Cu")
    (tedit 5EC65B05) (tstamp 186af7fd-4318-4226-94d6-04435bde8295)
    (at 171.13 97.26)
    (descr "Surface Mount Tactile Switch for High-Density Packaging")
    (tags "Tactile Switch")
    (property "Sheetfile" "Boombox.kicad_sch")
    (property "Sheetname" "")
    (path "/cb7c1d00-a71e-4856-8a1a-449e734c64ff")
    (attr smd)
    (fp_text reference "SW1" (at 0 -4.5) (layer "F.SilkS")
      (effects (font (size 1 1) (thickness 0.15)))
      (tstamp 3003fcaf-8293-4313-b0f3-229961f5a20b)
    )
    (fp_text value "BUTTON_B3SN" (at 0 4.5) (layer "F.Fab")
      (effects (font (size 1 1) (thickness 0.15)))
      (tstamp a0172379-1afc-40b2-85f2-09207f2a99ec)
    )
    (fp_text user "${REFERENCE}" (at 0 -4.5) (layer "F.Fab")
      (effects (font (size 1 1) (thickness 0.15)))
      (tstamp 239bd0c1-7d24-40b1-8ecd-85f82d90c459)
    )
    (fp_line (start 3.15 -1) (end 3.15 1) (layer "F.SilkS") (width 0.12) (tstamp 3712acca-bc06-40f6-ac06-b70dc4b9aaa6))
    (fp_line (start -3.15 -3.15) (end 3.15 -3.15) (layer "F.SilkS") (width 0.12) (tstamp 8fb3867a-9ea0-47cd-9c0a-1fbb8b970114))
    (fp_line (start -3.15 1) (end -3.15 -1) (layer "F.SilkS") (width 0.12) (tstamp 9fc7ac44-cb8c-4b0f-a19b-9c4d4ecd6ffd))
    (fp_line (start 3.15 3.15) (end -3.15 3.15) (layer "F.SilkS") (width 0.12) (tstamp f533bc4d-bd37-44a6-9486-0f0e7c9ed863))
    (fp_line (start -5 -3.7) (end -5 3.7) (layer "F.CrtYd") (width 0.05) (tstamp 23503166-0fcf-412b-821b-1f857e893c61))
    (fp_line (start 5 -3.7) (end -5 -3.7) (layer "F.CrtYd") (width 0.05) (tstamp 36b5ea1f-a397-4e83-b9c0-fca867f2ce58))
    (fp_line (start 5 3.7) (end 5 -3.7) (layer "F.CrtYd") (width 0.05) (tstamp 516ab96c-35ca-4884-a8b1-8bdb374572b5))
    (fp_line (start -5 3.7) (end 5 3.7) (layer "F.CrtYd") (width 0.05) (tstamp ebe367f5-1f3e-4a04-ac2f-963e9f4d7b90))
    (fp_line (start 3 -3) (end 3 3) (layer "F.Fab") (width 0.1) (tstamp 2a91e6cb-ef65-44a0-be00-ef4b9fb36271))
    (fp_line (start 3 3) (end -3 3) (layer "F.Fab") (width 0.1) (tstamp 304db95b-2e31-4d6d-be73-976d3cd39484))
    (fp_line (start -3 3) (end -3 -3) (layer "F.Fab") (width 0.1) (tstamp 68a498a2-626d-4d4a-bcb6-e7e9dbe20995))
    (fp_line (start -3 -3) (end 3 -3) (layer "F.Fab") (width 0.1) (tstamp a1f0d098-4e67-45ce-98ea-78d5bcbaaf1c))
    (fp_circle (center 0 0) (end 1.65 0) (layer "F.Fab") (width 0.1) (fill none) (tstamp ee175916-d8b5-497c-a678-5f961ebf1c94))
    (pad "1" smd rect locked (at 3.5 -2) (size 2.5 1.5) (layers "F.Cu" "F.Paste" "F.Mask")
      (net 12 "button") (pinfunction "1") (pintype "passive") (tstamp 0ef3391c-448f-4046-9390-a1228c05017a))
    (pad "1" smd rect locked (at -3.5 -2) (size 2.5 1.5) (layers "F.Cu" "F.Paste" "F.Mask")
      (net 12 "button") (pinfunction "1") (pintype "passive") (tstamp 85c3ea95-603d-4ae6-98a3-b0832d0ceb7f))
    (pad "2" smd rect locked (at -3.5 2) (size 2.5 1.5) (layers "F.Cu" "F.Paste" "F.Mask")
      (net 1 "GND") (pinfunction "2") (pintype "passive") (tstamp 91ff9cb7-97f7-4d29-9257-85bc3fbf4e51))
    (pad "2" smd rect locked (at 3.5 2) (size 2.5 1.5) (layers "F.Cu" "F.Paste" "F.Mask")
      (net 1 "GND") (pinfunction "2") (pintype "passive") (tstamp ab8879a6-ca0c-46ac-83c5-8bb7dec20d15))
    (model "${KISYS3DMOD}/Buttons_Switches_SMD.3dshapes/SW_SPST_B3S-1000.wrl"
      (offset (xyz 0 0 0))
      (scale (xyz 1 1 1))
      (rotate (xyz 0 0 0))
    )
  )

  (footprint "fab:SOD-123" (layer "F.Cu")
    (tedit 608544BD) (tstamp 30adbcb0-fc0a-4900-a43f-86ea2c7a31d5)
    (at 137.718 87.586 180)
    (descr "SOD-123")
    (tags "SOD-123")
    (property "Sheetfile" "Boombox.kicad_sch")
    (property "Sheetname" "")
    (path "/8e8b1713-abbf-48e3-9459-20b7f3ad6c09")
    (attr through_hole)
    (fp_text reference "D1" (at 0 1.6) (layer "F.SilkS")
      (effects (font (size 1 1) (thickness 0.15)))
      (tstamp 8dd785d1-511d-4538-964b-312a69d957a7)
    )
    (fp_text value "D_Schottky" (at 0 -1.5) (layer "F.Fab")
      (effects (font (size 1 1) (thickness 0.15)))
      (tstamp c4c5a52a-59bb-4103-b05b-78908e6fcd3d)
    )
    (fp_line (start -1.25 0.7) (end 1.25 0.7) (layer "F.SilkS") (width 0.12) (tstamp 34e8f9ed-8952-497d-a880-7755f58f2aca))
    (fp_line (start -1.25 -0.7) (end 1.25 -0.7) (layer "F.SilkS") (width 0.12) (tstamp 51affb03-86b5-4657-a377-656a0b0fa718))
    (fp_line (start 2.6 1) (end -2.6 1) (layer "B.CrtYd") (width 0.05) (tstamp 26f634e2-78b5-4173-b794-737266de1951))
    (fp_line (start 2.6 -0.9) (end 2.6 1) (layer "B.CrtYd") (width 0.05) (tstamp 36bb7cc5-40f2-497a-925f-69375e509408))
    (fp_line (start -2.6 -0.9) (end 2.6 -0.9) (layer "B.CrtYd") (width 0.05) (tstamp 462cc3b1-535e-43f2-9d1e-b0968d208b83))
    (fp_line (start -2.6 1) (end -2.6 -0.9) (layer "B.CrtYd") (width 0.05) (tstamp 8940ece4-cf42-491a-858d-f95bef7be0d5))
    (fp_line (start 1.2 -0.7) (end 1.2 0.7) (layer "F.Fab") (width 0.1) (tstamp 5340724d-eb84-440d-ab0b-11231bc90346))
    (fp_line (start 1.2 0.7) (end -1.2 0.7) (layer "F.Fab") (width 0.1) (tstamp b2ad209e-826a-4cf8-800c-b18b96d20b84))
    (fp_line (start -1.2 0.7) (end -1.2 -0.7) (layer "F.Fab") (width 0.1) (tstamp b6cd8fec-f584-4155-820a-2536d38ccad8))
    (fp_line (start -1.2 -0.7) (end 1.2 -0.7) (layer "F.Fab") (width 0.1) (tstamp d2a6ffd4-fcd4-4e78-b708-4b6258cda3b3))
    (pad "1" smd rect locked (at -1.8 0 180) (size 1.2 0.8) (layers "F.Cu" "F.Paste" "F.Mask")
      (net 2 "+5V") (pinfunction "K") (pintype "passive") (tstamp e35bca8f-5021-43ae-a2c7-35971950c53d))
    (pad "2" smd rect locked (at 1.8 0 180) (size 1.2 0.8) (layers "F.Cu" "F.Paste" "F.Mask")
      (net 3 "Net-(D1-Pad2)") (pinfunction "A") (pintype "passive") (tstamp 20cb7a59-5c46-47a2-8fc8-a951f476d54d))
  )

  (footprint "fab:PinHeader_FTDI_01x06_P2.54mm_Horizontal_SMD" (layer "F.Cu")
    (tedit 60851AE4) (tstamp 5026f652-a3c3-40da-b1b3-18817a846309)
    (at 157.85 104.1 -90)
    (descr "https://s3.amazonaws.com/catalogspreads-pdf/PAGE112-113%20.100%20MALE%20HDR.pdf")
    (tags "horizontal pin header SMD 2.54mm")
    (property "Sheetfile" "Boombox.kicad_sch")
    (property "Sheetname" "")
    (path "/5c99b0fb-52d6-40dc-a555-5d93530ada5a")
    (attr smd)
    (fp_text reference "J1" (at -1.524 -2.54 90) (layer "F.SilkS")
      (effects (font (size 1 1) (thickness 0.15)) (justify left))
      (tstamp 85fa1eab-1245-4613-9a11-b49263ba8690)
    )
    (fp_text value "FTDI_1x06_Horizontal" (at 2.286 15.621 90) (layer "F.Fab")
      (effects (font (size 1 1) (thickness 0.15)))
      (tstamp 43d7a62d-ce3e-4c6a-96a3-4a878ebe72fa)
    )
    (fp_text user "RTS" (at -1.905 12.7 90) (layer "F.SilkS")
      (effects (font (size 1 1) (thickness 0.15)) (justify left))
      (tstamp 0d4cea51-cc4c-4556-9e85-9d0a197d374d)
    )
    (fp_text user "VCC" (at -1.905 5.08 90) (layer "F.SilkS")
      (effects (font (size 1 1) (thickness 0.15)) (justify left))
      (tstamp 22d2a614-2d42-41fc-a0d4-6fbf343dcbfa)
    )
    (fp_text user "GND" (at -1.905 0 90) (layer "F.SilkS")
      (effects (font (size 1 1) (thickness 0.15)) (justify left))
      (tstamp 3c601655-d53e-4699-ad07-74023b5f078c)
    )
    (fp_text user "CTS" (at -1.905 2.54 90) (layer "F.SilkS")
      (effects (font (size 1 1) (thickness 0.15)) (justify left))
      (tstamp 8fd72ee2-7c8f-4aa7-b371-bfe5a919149d)
    )
    (fp_text user "TX" (at -1.905 7.62 90) (layer "F.SilkS")
      (effects (font (size 1 1) (thickness 0.15)) (justify left))
      (tstamp e1c4ab04-5687-4b5d-8d7b-b0147943922b)
    )
    (fp_text user "RX" (at -1.905 10.16 90) (layer "F.SilkS")
      (effects (font (size 1 1) (thickness 0.15)) (justify left))
      (tstamp fe59f646-dd1a-45a7-9a6e-62ad207a2947)
    )
    (fp_text user "${REFERENCE}" (at 2.6 6.1) (layer "F.Fab")
      (effects (font (size 1 1) (thickness 0.15)))
      (tstamp fcd4e06b-2675-4606-a0e4-dbc3cd5775d6)
    )
    (fp_line (start 3.81 -1.27) (end 6.35 -1.27) (layer "F.SilkS") (width 0.12) (tstamp 180fa346-8a0c-4cbb-a203-5f8596e28190))
    (fp_line (start 3.81 9.906) (end 1.27 9.906) (layer "F.SilkS") (width 0.12) (tstamp 1a840357-9053-4b4b-be6c-a0a8639680d7))
    (fp_line (start 3.81 12.446) (end 1.27 12.446) (layer "F.SilkS") (width 0.12) (tstamp 1ce510bd-6817-44d6-9e94-1e5555885e89))
    (fp_line (start 3.81 2.794) (end 1.27 2.794) (layer "F.SilkS") (width 0.12) (tstamp 2d52b740-78c8-48c7-b0c6-d7cf351a37bf))
    (fp_line (start 3.81 4.826) (end 1.27 4.826) (layer "F.SilkS") (width 0.12) (tstamp 375d226d-7c58-4cd9-8321-87de9ab882b5))
    (fp_line (start 3.81 5.334) (end 1.27 5.334) (layer "F.SilkS") (width 0.12) (tstamp 419c0525-ef54-46a8-bbcb-8df3421ff019))
    (fp_line (start 3.81 0.254) (end 1.27 0.254) (layer "F.SilkS") (width 0.12) (tstamp 51088ed1-115e-4f03-8174-d6c687a76876))
    (fp_line (start -1.27 -1.27) (end 0 -1.27) (layer "F.SilkS") (width 0.12) (tstamp 71a41c53-c356-43b2-b77e-cfa4fd361a0d))
    (fp_line (start 6.35 -1.27) (end 6.35 13.97) (layer "F.SilkS") (width 0.12) (tstamp 742edecd-b9fd-4ab0-b3b5-11fddf70e998))
    (fp_line (start 6.35 13.97) (end 3.81 13.97) (layer "F.SilkS") (width 0.12) (tstamp 7472dcad-00bf-4d88-b266-7a32b62213f8))
    (fp_line (start 3.81 10.414) (end 1.27 10.414) (layer "F.SilkS") (width 0.12) (tstamp 758b305f-0305-4e16-82d4-edbfc902ed8c))
    (fp_line (start 3.81 2.286) (end 1.27 2.286) (layer "F.SilkS") (width 0.12) (tstamp ac1628c4-4dc9-4d03-82dc-23c1d91ea4ee))
    (fp_line (start 3.81 13.97) (end 3.81 -1.27) (layer "F.SilkS") (width 0.12) (tstamp bbc15c23-0f54-4996-ac32-7c92fe0ff6d5))
    (fp_line (start 3.81 -0.254) (end 1.27 -0.254) (layer "F.SilkS") (width 0.12) (tstamp be207d1a-0790-4021-8cd6-6ed4e93aea39))
    (fp_line (start 3.81 12.954) (end 1.27 12.954) (layer "F.SilkS") (width 0.12) (tstamp c2948fc4-d8e7-42a5-888d-c744528c03f5))
    (fp_line (start 3.81 7.874) (end 1.27 7.874) (layer "F.SilkS") (width 0.12) (tstamp f2541c63-f916-4eec-8e16-fa49e5de1e82))
    (fp_line (start 3.81 7.366) (end 1.27 7.366) (layer "F.SilkS") (width 0.12) (tstamp f7b72427-2e9e-4c5e-8c5a-380ae512d15f))
    (fp_line (start -1.8 14.5) (end 6.4 14.5) (layer "F.CrtYd") (width 0.05) (tstamp 46f3598a-2312-464d-938a-6b7031ae10b2))
    (fp_line (start 6.4 14.5) (end 6.4 -1.8) (layer "F.CrtYd") (width 0.05) (tstamp 79c86c81-1e60-4067-b0e7-4eaaa5348326))
    (fp_line (start -1.8 -1.8) (end -1.8 14.5) (layer "F.CrtYd") (width 0.05) (tstamp 7f270a66-012c-43c0-b30d-3e3a925cbd61))
    (fp_line (start 6.4 -1.8) (end -1.8 -1.8) (layer "F.CrtYd") (width 0.05) (tstamp d6d63e09-315e-473d-938e-d2fae58cb5ac))
    (fp_line (start -0.635 7.366) (end -0.635 7.874) (layer "F.Fab") (width 0.1) (tstamp 05847d21-c8ba-4c0b-b31b-eeafc066b0b9))
    (fp_line (start 3.8 13.97) (end 6.35 13.97) (layer "F.Fab") (width 0.1) (tstamp 1364471e-6d9a-4296-b76b-342ca1d6faae))
    (fp_line (start 3.81 10.16) (end -0.635 10.16) (layer "F.Fab") (width 0.1) (tstamp 15d62b4f-612f-4d3f-a57d-c074c02b9cfc))
    (fp_line (start -0.635 9.906) (end -0.635 10.414) (layer "F.Fab") (width 0.1) (tstamp 2c82c943-6dfa-4e5b-87dc-8e5d0c5ddbcb))
    (fp_line (start 3.81 12.7) (end -0.635 12.7) (layer "F.Fab") (width 0.1) (tstamp 31e37b55-b4fc-4af4-9761-b224deaed044))
    (fp_line (start 6.34 -1.27) (end 6.35 13.97) (layer "F.Fab") (width 0.1) (tstamp 365c8270-80eb-4a12-8564-ec36a73d5d08))
    (fp_line (start -0.635 -0.254) (end -0.635 0.254) (layer "F.Fab") (width 0.1) (tstamp 51309631-9f83-4fbb-9127-220a52fbf0f1))
    (fp_line (start 3.81 7.62) (end -0.635 7.62) (layer "F.Fab") (width 0.1) (tstamp 5865f349-05da-4803-a6f7-546b5592d3e2))
    (fp_line (start 3.8 13.97) (end 3.8 -1.27) (layer "F.Fab") (width 0.1) (tstamp 69adadb9-ff3c-4ce2-814d-b306f29ff7c0))
    (fp_line (start -0.635 4.826) (end -0.635 5.334) (layer "F.Fab") (width 0.1) (tstamp 7675a3ba-bf45-4b76-ab49-4e7cd3061f2f))
    (fp_line (start 3.81 2.54) (end -0.635 2.54) (layer "F.Fab") (width 0.1) (tstamp 8ed164c5-ab09-4a08-b510-f3567121f312))
    (fp_line (start -0.635 12.446) (end -0.635 12.954) (layer "F.Fab") (width 0.1) (tstamp 9ece99f7-7eac-43a6-848c-dd00e2e8ce3b))
    (fp_line (start 3.81 0) (end -0.635 0) (layer "F.Fab") (width 0.1) (tstamp 9fec555c-bb16-4267-a559-c0afb3f5c352))
    (fp_line (start -0.635 2.286) (end -0.635 2.794) (layer "F.Fab") (width 0.1) (tstamp abd9a564-5eb6-4444-83ed-fabd2f7682ef))
    (fp_line (start 3.8 -1.27) (end 6.34 -1.27) (layer "F.Fab") (width 0.1) (tstamp e8545b5a-77ca-4d05-a0b8-125f7d8e3629))
    (fp_line (start 3.81 5.08) (end -0.635 5.08) (layer "F.Fab") (width 0.1) (tstamp ec6aa204-8bbb-4e12-9d75-fc28b4a38752))
    (pad "1" smd rect locked (at 0 0 270) (size 2.5 1.7) (layers "F.Cu" "F.Paste" "F.Mask")
      (net 1 "GND") (pinfunction "GND") (pintype "passive") (tstamp e18a0001-fde7-490a-b11e-9d0b18712d51))
    (pad "2" smd rect locked (at 0 2.54 270) (size 2.5 1.7) (layers "F.Cu" "F.Paste" "F.Mask")
      (net 6 "unconnected-(J1-Pad2)") (pinfunction "CTS") (pintype "passive+no_connect") (tstamp 6ec503e2-372d-41b4-bd9d-d511c953e3f9))
    (pad "3" smd rect locked (at 0 5.08 270) (size 2.5 1.7) (layers "F.Cu" "F.Paste" "F.Mask")
      (net 3 "Net-(D1-Pad2)") (pinfunction "VCC") (pintype "passive") (tstamp 5b6e3898-e35c-47cc-80c8-3557bc05e685))
    (pad "4" smd rect locked (at 0 7.62 270) (size 2.5 1.7) (layers "F.Cu" "F.Paste" "F.Mask")
      (net 7 "TX") (pinfunction "TX") (pintype "passive") (tstamp 21baffe9-5732-4613-a98e-f6a90188f6d6))
    (pad "5" smd rect locked (at 0 10.16 270) (size 2.5 1.7) (layers "F.Cu" "F.Paste" "F.Mask")
      (net 8 "RX") (pinfunction "RX") (pintype "passive") (tstamp 1c8bff45-4df4-4df7-8028-c3646cd74fc7))
    (pad "6" smd rect locked (at 0 12.7 270) (size 2.5 1.7) (layers "F.Cu" "F.Paste" "F.Mask")
      (net 9 "unconnected-(J1-Pad6)") (pinfunction "RTS") (pintype "passive+no_connect") (tstamp 9d712c28-7284-4e0b-bde9-adbfdf06743f))
    (model "${FAB}/fab.3dshapes/Header_SMD_01x06_P2.54mm_Horizontal_Male.step"
      (offset (xyz 0 0 0))
      (scale (xyz 1 1 1))
      (rotate (xyz 0 0 0))
    )
  )

  (footprint "fab:LED_1206" (layer "F.Cu")
    (tedit 595FC724) (tstamp 6b3e0590-8337-4ece-9df3-08bfec02c018)
    (at 156.39 87.376 180)
    (descr "LED SMD 1206, hand soldering")
    (tags "LED 1206")
    (property "Sheetfile" "Boombox.kicad_sch")
    (property "Sheetname" "")
    (path "/c8667c11-0548-4d7c-9634-548143e9465b")
    (attr smd)
    (fp_text reference "D2" (at 0 -1.85) (layer "F.SilkS")
      (effects (font (size 1 1) (thickness 0.15)))
      (tstamp bd7ee4a2-159a-4837-87f6-4c41a5dd6ce8)
    )
    (fp_text value "LED" (at 0 1.9) (layer "F.Fab")
      (effects (font (size 1 1) (thickness 0.15)))
      (tstamp 93ffad1a-6bff-4b74-b801-425c4ffe8171)
    )
    (fp_line (start -3.1 -0.95) (end -3.1 0.95) (layer "F.SilkS") (width 0.12) (tstamp 0374ad91-b215-4fae-ba3c-0c7b8ba2f603))
    (fp_line (start -3.1 -0.95) (end 1.6 -0.95) (layer "F.SilkS") (width 0.12) (tstamp db5bd896-647a-495e-913d-c426a73dbde5))
    (fp_line (start -3.1 0.95) (end 1.6 0.95) (layer "F.SilkS") (width 0.12) (tstamp e48404bf-0acb-4434-9194-099636fab6ba))
    (fp_line (start -3.25 -1.11) (end 3.25 -1.11) (layer "F.CrtYd") (width 0.05) (tstamp 32a093f2-6548-45c0-9fca-07ddbe131b52))
    (fp_line (start 3.25 1.1) (end 3.25 -1.11) (layer "F.CrtYd") (width 0.05) (tstamp 6d7d50cc-9518-4139-be10-5dec207c853a))
    (fp_line (start 3.25 1.1) (end -3.25 1.1) (layer "F.CrtYd") (width 0.05) (tstamp baf7d5c1-8bc5-4816-9c9c-bb92b4a6b3da))
    (fp_line (start -3.25 -1.11) (end -3.25 1.1) (layer "F.CrtYd") (width 0.05) (tstamp c52570c5-ac67-4d1c-8c09-fa44e530b998))
    (fp_line (start -0.45 -0.4) (end -0.45 0.4) (layer "F.Fab") (width 0.1) (tstamp 2dd30b7f-3734-46d0-94cc-1b18069ed498))
    (fp_line (start 0.2 -0.4) (end 0.2 0.4) (layer "F.Fab") (width 0.1) (tstamp 4c34cca3-671e-4cbb-8c98-2c563fd357db))
    (fp_line (start -1.6 0.8) (end -1.6 -0.8) (layer "F.Fab") (width 0.1) (tstamp 55b5e555-65e3-4402-9416-f117be4dba20))
    (fp_line (start 1.6 0.8) (end -1.6 0.8) (layer "F.Fab") (width 0.1) (tstamp 75674ae0-b1bf-4c29-b26b-9cf08ea1e0a5))
    (fp_line (start 1.6 -0.8) (end 1.6 0.8) (layer "F.Fab") (width 0.1) (tstamp 77f9d769-3ce5-45e7-9c3d-d3e39745b91d))
    (fp_line (start -1.6 -0.8) (end 1.6 -0.8) (layer "F.Fab") (width 0.1) (tstamp a57693c1-3d79-4332-8da3-261091df55b1))
    (fp_line (start -0.4 0) (end 0.2 -0.4) (layer "F.Fab") (width 0.1) (tstamp ca5ad450-3902-481b-90b6-83da54a5772d))
    (fp_line (start 0.2 0.4) (end -0.4 0) (layer "F.Fab") (width 0.1) (tstamp e88da5de-1524-421c-b544-671bcc707c2a))
    (pad "1" smd rect locked (at -2 0 180) (size 2 1.7) (layers "F.Cu" "F.Paste" "F.Mask")
      (net 5 "Net-(D2-Pad1)") (pinfunction "K") (pintype "passive") (tstamp c43f24b0-01c4-45ec-aa4a-5498098e16ab))
    (pad "2" smd rect locked (at 2 0 180) (size 2 1.7) (layers "F.Cu" "F.Paste" "F.Mask")
      (net 4 "led") (pinfunction "A") (pintype "passive") (tstamp a33382a8-054e-4a7b-8225-9afd562d22d3))
    (model "${KISYS3DMOD}/LEDs.3dshapes/LED_1206.wrl"
      (offset (xyz 0 0 0))
      (scale (xyz 1 1 1))
      (rotate (xyz 0 0 180))
    )
  )

  (footprint "fab:SOIC-8_3.9x4.9mm_P1.27mm" locked (layer "F.Cu")
    (tedit 608D94DE) (tstamp 7d0055d8-110d-4a4c-93e4-b4718fa3724f)
    (at 147.82 95.096372)
    (tags "SOIC 1.27")
    (property "Sheetfile" "Boombox.kicad_sch")
    (property "Sheetname" "")
    (path "/0ec5a6dc-6ac8-4202-b90c-e1268975dc60")
    (attr smd)
    (fp_text reference "U1" (at 0 -3.5) (layer "F.SilkS")
      (effects (font (size 1 1) (thickness 0.15)))
      (tstamp 6882b072-f63f-45f5-87f6-0d11aacfe7f6)
    )
    (fp_text value "ATtiny412" (at 0 3.683) (layer "F.Fab")
      (effects (font (size 1 1) (thickness 0.15)))
      (tstamp 6f61acf9-283e-43c1-b11a-174e497e5b25)
    )
    (fp_text user "${REFERENCE}" (at 0 0) (layer "F.Fab")
      (effects (font (size 0.9 0.9) (thickness 0.135)))
      (tstamp 19e4ca0e-444b-4e6e-a1f2-a7cc7ff5326b)
    )
    (fp_line (start -3.69 -2.575) (end 2.075 -2.575) (layer "F.SilkS") (width 0.15) (tstamp 6fce1f2a-ad35-4b1e-9b79-4131602fc304))
    (fp_line (start -2.075 2.575) (end 2.075 2.575) (layer "F.SilkS") (width 0.15) (tstamp f36525db-fcf6-42a9-83f2-822c803fe90b))
    (fp_circle (center -2.87 -3.23) (end -2.67 -3.23) (layer "F.SilkS") (width 0.12) (fill none) (tstamp f1536c37-7639-4e11-bd04-69515425db56))
    (fp_line (start 4 2.75) (end -4 2.75) (layer "B.CrtYd") (width 0.05) (tstamp 357856bd-3d3d-4160-8d89-c953aff1cccb))
    (fp_line (start -4 2.75) (end -4 -2.8) (layer "B.CrtYd") (width 0.05) (tstamp 5e3a9117-7414-4678-a10d-723b7e2d0990))
    (fp_line (start 4 -2.8) (end 4 2.75) (layer "B.CrtYd") (width 0.05) (tstamp 8e62e53a-50cb-4606-a861-ac07ad9b29ee))
    (fp_line (start -4 -2.8) (end 4 -2.8) (layer "B.CrtYd") (width 0.05) (tstamp e482d328-8e85-4308-9b34-a9cc0d5843cf))
    (fp_line (start -1.95 2.45) (end 1.95 2.45) (layer "F.Fab") (width 0.1) (tstamp 0c4fafd9-d3fa-455c-b2df-8d52afcfa20a))
    (fp_line (start -1.95 -2.45) (end -1.95 2.45) (layer "F.Fab") (width 0.1) (tstamp 41daf2ee-bc90-4b0e-88ad-8070ecac6d6a))
    (fp_line (start -1.95 -2.45) (end 1.95 -2.45) (layer "F.Fab") (width 0.1) (tstamp b7f6c336-bea9-4b10-9fac-c9c0a9c71687))
    (fp_line (start 1.95 -2.45) (end 1.95 2.45) (layer "F.Fab") (width 0.1) (tstamp de56c570-97bb-4c63-ac96-e8cbc91649b5))
    (pad "1" smd rect locked (at -2.8 -1.905) (size 2 0.8) (layers "F.Cu" "F.Paste" "F.Mask")
      (net 2 "+5V") (pinfunction "VCC") (pintype "power_in") (tstamp de318d54-9ecf-49a5-aa55-23b881ca3d37))
    (pad "2" smd rect locked (at -2.8 -0.635) (size 2 0.8) (layers "F.Cu" "F.Paste" "F.Mask")
      (net 8 "RX") (pinfunction "TXD/PA6/DAC") (pintype "bidirectional") (tstamp ca9250eb-6c1b-4489-a33a-5da4004263f8))
    (pad "3" smd rect locked (at -2.8 0.635) (size 2 0.8) (layers "F.Cu" "F.Paste" "F.Mask")
      (net 7 "TX") (pinfunction "RXD/PA7") (pintype "bidirectional") (tstamp c1fbcf6a-9fcf-4f91-9749-1eb6b6cca1a7))
    (pad "4" smd rect locked (at -2.8 1.905) (size 2 0.8) (layers "F.Cu" "F.Paste" "F.Mask")
      (net 11 "pot") (pinfunction "PA1/SDA") (pintype "bidirectional") (tstamp 08f152a7-5dd6-40b8-86c8-5a6a84e3e7cf))
    (pad "5" smd rect locked (at 2.8 1.905) (size 2 0.8) (layers "F.Cu" "F.Paste" "F.Mask")
      (net 12 "button") (pinfunction "PA2/SCL") (pintype "bidirectional") (tstamp 09b9248f-bf17-4ab5-8f81-81360ef54010))
    (pad "6" smd rect locked (at 2.8 0.635) (size 2 0.8) (layers "F.Cu" "F.Paste" "F.Mask")
      (net 10 "UPDI") (pinfunction "~{RESET}/UPDI/PA0") (pintype "bidirectional") (tstamp db5eee57-71a9-41d2-84ae-3a208d9127dc))
    (pad "7" smd rect locked (at 2.8 -0.635) (size 2 0.8) (layers "F.Cu" "F.Paste" "F.Mask")
      (net 4 "led") (pinfunction "PA3/SCK") (pintype "bidirectional") (tstamp fa247a02-09cf-4c05-85a9-48d63936ee00))
    (pad "8" smd rect locked (at 2.8 -1.905) (size 2 0.8) (layers "F.Cu" "F.Paste" "F.Mask")
      (net 1 "GND") (pinfunction "GND") (pintype "power_in") (tstamp 61614cee-b370-4b29-a238-fc28a54dab71))
    (model "${FAB}/fab.3dshapes/SOIC-8_3.9x4.9mm_P1.27mm.step"
      (offset (xyz 0 0 0))
      (scale (xyz 1 1 1))
      (rotate (xyz 0 0 0))
    )
  )

  (footprint "fab:PinHeader_2x03_P2.54mm_Vertical_SMD" (layer "F.Cu")
    (tedit 608517EB) (tstamp c129b3e7-c088-425a-af57-9a80104e1035)
    (at 131.63 97.97 180)
    (descr "surface-mounted straight pin header, 2x03, 2.54mm pitch, double rows")
    (tags "Surface mounted pin header SMD 2x03 2.54mm double row")
    (property "Sheetfile" "Boombox.kicad_sch")
    (property "Sheetname" "")
    (path "/9f96918a-33d7-428e-a54a-3f50ac681326")
    (attr smd)
    (fp_text reference "J2" (at 0 -4.87) (layer "F.SilkS")
      (effects (font (size 1 1) (thickness 0.15)))
      (tstamp c53ae628-8966-456e-ae1b-a5eb13cf6671)
    )
    (fp_text value "UPDI_2x03_Vertical" (at 0 4.87) (layer "F.Fab")
      (effects (font (size 1 1) (thickness 0.15)))
      (tstamp 90006e1c-63d7-4e7f-8b14-91126a3d2ccc)
    )
    (fp_text user "${REFERENCE}" (at 0 0 90) (layer "F.Fab")
      (effects (font (size 1 1) (thickness 0.15)))
      (tstamp 264e210d-d194-4e6c-8665-824968b65c33)
    )
    (fp_line (start -2.6 3.3) (end -2.6 3.87) (layer "F.SilkS") (width 0.12) (tstamp 09cfa228-3f8f-4855-8832-13de3de3c2ef))
    (fp_line (start 2.6 -1.78) (end 2.6 -0.76) (layer "F.SilkS") (width 0.12) (tstamp 138b55c4-a8cf-43b6-aeeb-467cc948641b))
    (fp_line (start 2.6 0.76) (end 2.6 1.78) (layer "F.SilkS") (width 0.12) (tstamp 313d7939-b1f4-4f95-8fbf-38d2d1bd0a6a))
    (fp_line (start -2.6 3.87) (end 2.6 3.87) (layer "F.SilkS") (width 0.12) (tstamp 32fdc694-2933-4da7-a992-50f5f69d631c))
    (fp_line (start 2.6 3.3) (end 2.6 3.87) (layer "F.SilkS") (width 0.12) (tstamp 477c977c-a0f1-462e-8f90-4f33f2ceced4))
    (fp_line (start -4.04 -3.3) (end -2.6 -3.3) (layer "F.SilkS") (width 0.12) (tstamp 7134e052-9715-4444-b7a0-6121e925c68c))
    (fp_line (start -2.6 -3.87) (end -2.6 -3.3) (layer "F.SilkS") (width 0.12) (tstamp 75797fbd-3c76-4f01-b161-b4edb486c6bf))
    (fp_line (start 2.6 -3.87) (end 2.6 -3.3) (layer "F.SilkS") (width 0.12) (tstamp 911e095e-8926-48ad-844e-151fd6fadf2f))
    (fp_line (start -2.6 0.76) (end -2.6 1.78) (layer "F.SilkS") (width 0.12) (tstamp cb2084ec-bf02-4b3f-b3b1-2b9f517acb7d))
    (fp_line (start -2.6 -3.87) (end 2.6 -3.87) (layer "F.SilkS") (width 0.12) (tstamp d560f8a7-acc0-4530-aa83-f638ee6b311e))
    (fp_line (start -2.6 -1.78) (end -2.6 -0.76) (layer "F.SilkS") (width 0.12) (tstamp db50c740-f3a7-4710-a1b9-02b419bdcafd))
    (fp_line (start -5.9 -4.35) (end -5.9 4.35) (layer "F.CrtYd") (width 0.05) (tstamp 0e95702b-aa27-42cd-ade6-beebc10c6f82))
    (fp_line (start 5.9 4.35) (end 5.9 -4.35) (layer "F.CrtYd") (width 0.05) (tstamp 3fdda639-35bd-4f8b-a261-f06f2e0aaaa9))
    (fp_line (start 5.9 -4.35) (end -5.9 -4.35) (layer "F.CrtYd") (width 0.05) (tstamp 9c088fa7-228e-4974-9f8b-93ffff2752db))
    (fp_line (start -5.9 4.35) (end 5.9 4.35) (layer "F.CrtYd") (width 0.05) (tstamp b0ad97c6-3a9f-4b40-baf3-8beb66603a13))
    (fp_line (start 3.6 2.86) (end 2.54 2.86) (layer "F.Fab") (width 0.1) (tstamp 01a2bdc6-039f-41f7-b045-94d753ea8bb9))
    (fp_line (start -3.6 0.32) (end -2.54 0.32) (layer "F.Fab") (width 0.1) (tstamp 0984d246-a056-41b6-857a-9508e6f2c66c))
    (fp_line (start -1.59 -3.81) (end 2.54 -3.81) (layer "F.Fab") (width 0.1) (tstamp 10644603-f43d-4792-acaf-cd1b2324c21e))
    (fp_line (start 2.54 -3.81) (end 2.54 3.81) (layer "F.Fab") (width 0.1) (tstamp 12050b28-95ef-4d12-8193-c35289996e5c))
    (fp_line (start 2.54 -2.86) (end 3.6 -2.86) (layer "F.Fab") (width 0.1) (tstamp 2a126e98-5b44-4ec5-af47-80fdf2a7b11b))
    (fp_line (start 2.54 2.22) (end 3.6 2.22) (layer "F.Fab") (width 0.1) (tstamp 2ccf2f47-76bd-43db-891f-05a0a4419612))
    (fp_line (start 3.6 -2.86) (end 3.6 -2.22) (layer "F.Fab") (width 0.1) (tstamp 2e9cff03-8bf4-4aa6-adf9-4cd5a9013698))
    (fp_line (start -3.6 -0.32) (end -3.6 0.32) (layer "F.Fab") (width 0.1) (tstamp 55283f11-4a28-4e5b-a18a-93cb2a5a7003))
    (fp_line (start -2.54 2.22) (end -3.6 2.22) (layer "F.Fab") (width 0.1) (tstamp 5e2d5e44-b81c-480e-a9ce-2c096fdca7d5))
    (fp_line (start -2.54 -0.32) (end -3.6 -0.32) (layer "F.Fab") (width 0.1) (tstamp 63c0c257-b237-44b1-8be5-c99ab2879bf9))
    (fp_line (start -2.54 3.81) (end -2.54 -2.86) (layer "F.Fab") (width 0.1) (tstamp 7e3ebaa5-f92a-4f20-89d7-2e5cd0b93ac5))
    (fp_line (start -2.54 -2.86) (end -3.6 -2.86) (layer "F.Fab") (width 0.1) (tstamp 89e0b497-98dd-488a-97c5-19e6c7bfb2b8))
    (fp_line (start -3.6 -2.22) (end -2.54 -2.22) (layer "F.Fab") (width 0.1) (tstamp 8a543a22-3f2e-4ef6-80ac-9ac69fbe4cf3))
    (fp_line (start 3.6 2.22) (end 3.6 2.86) (layer "F.Fab") (width 0.1) (tstamp a0ca003d-9eee-4b1b-a4e3-412f370f0899))
    (fp_line (start -3.6 -2.86) (end -3.6 -2.22) (layer "F.Fab") (width 0.1) (tstamp a45442c0-9d21-4a39-a146-5bb8a82144a3))
    (fp_line (start -3.6 2.86) (end -2.54 2.86) (layer "F.Fab") (width 0.1) (tstamp accebe4a-4811-45d8-8b08-88051390a08a))
    (fp_line (start 3.6 0.32) (end 2.54 0.32) (layer "F.Fab") (width 0.1) (tstamp b81ef256-ef22-495d-8d9b-b4631c5f3b29))
    (fp_line (start 2.54 3.81) (end -2.54 3.81) (layer "F.Fab") (width 0.1) (tstamp bd31574f-cdbc-46a5-ae29-0f3b82698dca))
    (fp_line (start 3.6 -0.32) (end 3.6 0.32) (layer "F.Fab") (width 0.1) (tstamp bdf99f21-7344-4f0b-806c-471f3aeb7c38))
    (fp_line (start 3.6 -2.22) (end 2.54 -2.22) (layer "F.Fab") (width 0.1) (tstamp dc663224-08b0-4aae-9ba1-1af26a201999))
    (fp_line (start 2.54 -0.32) (end 3.6 -0.32) (layer "F.Fab") (width 0.1) (tstamp efd09fd1-d153-48b8-a456-4ec68022d7ab))
    (fp_line (start -2.54 -2.86) (end -1.59 -3.81) (layer "F.Fab") (width 0.1) (tstamp fa41badb-02bb-456a-a299-207b711c60d9))
    (fp_line (start -3.6 2.22) (end -3.6 2.86) (layer "F.Fab") (width 0.1) (tstamp faeac661-9a42-43fb-af6a-5c8ffa349c7f))
    (pad "1" smd rect locked (at -2.525 -2.54 180) (size 3.15 1) (layers "F.Cu" "F.Paste" "F.Mask")
      (net 10 "UPDI") (pinfunction "UPDI") (pintype "passive") (tstamp 47102c41-05df-4da0-a689-4e4c5e60d6aa))
    (pad "2" smd rect locked (at 2.525 -2.54 180) (size 3.15 1) (layers "F.Cu" "F.Paste" "F.Mask")
      (net 2 "+5V") (pinfunction "VCC") (pintype "passive") (tstamp 71bcff9a-9916-499c-b984-d624fe2423f5))
    (pad "3" smd rect locked (at -2.525 0 180) (size 3.15 1) (layers "F.Cu" "F.Paste" "F.Mask")
      (net 1 "GND") (pinfunction "GND") (pintype "passive") (tstamp f54db01e-657d-46ea-8868-c31d38364a73))
    (pad "4" smd rect locked (at 2.525 0 180) (size 3.15 1) (layers "F.Cu" "F.Paste" "F.Mask")
      (net 1 "GND") (pinfunction "GND") (pintype "passive") (tstamp d45d8f08-f698-43e9-84bc-4b0f5a09eaed))
    (pad "5" smd rect locked (at -2.525 2.54 180) (size 3.15 1) (layers "F.Cu" "F.Paste" "F.Mask")
      (net 2 "+5V") (pinfunction "VCC") (pintype "passive") (tstamp 11b641c6-9bc3-4446-b7ba-adb91bcf498d))
    (pad "6" smd rect locked (at 2.525 2.54 180) (size 3.15 1) (layers "F.Cu" "F.Paste" "F.Mask")
      (net 10 "UPDI") (pinfunction "UPDI") (pintype "passive") (tstamp 3c8f07e6-d926-4500-875f-7731621fea24))
    (model "${KISYS3DMOD}/Connector_PinHeader_2.54mm.3dshapes/PinHeader_2x03_P2.54mm_Vertical_SMD.wrl"
      (offset (xyz 0 0 0))
      (scale (xyz 1 1 1))
      (rotate (xyz 0 0 0))
    )
  )

  (footprint "fab:Potentiometer_TT_Model-23_4.5x5.0x3.0mm" locked (layer "F.Cu")
    (tedit 60D4536B) (tstamp c57d209c-616e-4250-b805-12b085e17364)
    (at 157.175 94.121372)
    (descr "http://www.comkey.in/sites/default/files/attachments/EVM3ESX50B15.pdf")
    (tags "trimmer smd")
    (property "Sheetfile" "Boombox.kicad_sch")
    (property "Sheetname" "")
    (path "/87f8472a-d106-495a-8bb6-c319470c4b3e")
    (attr smd)
    (fp_text reference "RV1" (at 0 1) (layer "F.SilkS")
      (effects (font (size 1 1) (thickness 0.15)))
      (tstamp 4e7f077b-b549-4a6c-88a8-b7e8876537d4)
    )
    (fp_text value "POT_10K" (at 0 0) (layer "F.Fab")
      (effects (font (size 1 1) (thickness 0.15)))
      (tstamp f4136950-38cb-4981-9884-4447a479e935)
    )
    (fp_line (start 2.15 -2.38) (end 2.66 -2.38) (layer "F.SilkS") (width 0.12) (tstamp 21d87a2a-b71a-407d-bf24-214550e61e05))
    (fp_line (start -2.65 -2.38) (end -2.14 -2.38) (layer "F.SilkS") (width 0.12) (tstamp 82b81181-bc52-434b-af8f-bc3445ce8214))
    (fp_line (start 2.66 -2.38) (end 2.66 -0.1) (layer "F.SilkS") (width 0.12) (tstamp 8fc5039f-fa7a-484e-9ad4-f3af3342baeb))
    (fp_line (start -2.65 -0.1) (end -2.65 -2.38) (layer "F.SilkS") (width 0.12) (tstamp 9b9cd573-e367-4d94-90f4-e2cd3fba3c04))
    (fp_line (start -2.5 2.25) (end -2.5 -2.25) (layer "F.CrtYd") (width 0.05) (tstamp 4be1cee2-a15e-46bb-b636-7b7b95d7450e))
    (fp_line (start 2.5 -2.25) (end 2.5 2.25) (layer "F.CrtYd") (width 0.05) (tstamp 4ed97a04-0986-4770-aed0-dc9f909c392f))
    (fp_line (start -2.5 -2.25) (end 2.5 -2.25) (layer "F.CrtYd") (width 0.05) (tstamp 694349ac-dd8e-4206-ab3f-a2667df33d53))
    (fp_line (start 2.5 2.25) (end -2.5 2.25) (layer "F.CrtYd") (width 0.05) (tstamp bc753aac-1971-416a-8edc-ba432ac8a22c))
    (pad "1" smd rect locked (at 1.16 2.75) (size 1.5 2) (layers "F.Cu" "F.Paste" "F.Mask")
      (net 2 "+5V") (pinfunction "1") (pintype "passive") (tstamp eb75ee71-6d06-4e03-9484-29b8afde8e1d))
    (pad "2" smd rect locked (at 0 -2.75) (size 2 2.5) (layers "F.Cu" "F.Paste" "F.Mask")
      (net 11 "pot") (pinfunction "2") (pintype "passive") (tstamp d3117acb-6d37-4d47-adad-d6ddb8ec4b01))
    (pad "3" smd rect locked (at -1.15 2.75) (size 1.5 2) (layers "F.Cu" "F.Paste" "F.Mask")
      (net 1 "GND") (pinfunction "3") (pintype "passive") (tstamp 812e83c6-cff0-4e9e-a837-f577d930f6d8))
  )

  (footprint "fab:C_1206" (layer "F.Cu")
    (tedit 6002C54C) (tstamp ef5424af-7165-4af3-a774-42a0561bc139)
    (at 146.59 89.154)
    (descr "Capacitor SMD 1206, hand soldering")
    (tags "capacitor 1206")
    (property "Sheetfile" "Boombox.kicad_sch")
    (property "Sheetname" "")
    (path "/871c269c-0d47-4931-9a81-4873005f0b2f")
    (attr smd)
    (fp_text reference "C1" (at 0 -1.85) (layer "F.SilkS")
      (effects (font (size 1 1) (thickness 0.15)))
      (tstamp 243ab842-82be-46df-ba59-cc590a18ec99)
    )
    (fp_text value "1uF" (at 0 1.9) (layer "F.Fab")
      (effects (font (size 1 1) (thickness 0.15)))
      (tstamp 13cddfc4-84c9-45f9-a919-6c85f5f1b40d)
    )
    (fp_text user "${REFERENCE}" (at 0 0) (layer "F.Fab")
      (effects (font (size 0.7 0.7) (thickness 0.105)))
      (tstamp 2b41069d-4510-4af9-bec6-27ec9a05496c)
    )
    (fp_line (start -1 -1.07) (end 1 -1.07) (layer "F.SilkS") (width 0.12) (tstamp 7bca5ce3-6022-488e-b575-434a9a81f20c))
    (fp_line (start 1 1.07) (end -1 1.07) (layer "F.SilkS") (width 0.12) (tstamp 845fdfbc-c464-442f-8ca4-945189100ea0))
    (fp_line (start -3.25 -1.11) (end 3.25 -1.11) (layer "F.CrtYd") (width 0.05) (tstamp 068537eb-19b5-43c2-a1fa-b0fc53cc0414))
    (fp_line (start 3.25 1.1) (end -3.25 1.1) (layer "F.CrtYd") (width 0.05) (tstamp 24e025ff-1d02-4165-873a-70457b8e152e))
    (fp_line (start -3.25 -1.11) (end -3.25 1.1) (layer "F.CrtYd") (width 0.05) (tstamp 3ea5cc76-f0b8-4e5c-8674-00da07e95e3e))
    (fp_line (start 3.25 1.1) (end 3.25 -1.11) (layer "F.CrtYd") (width 0.05) (tstamp 59c49c55-6c6d-471f-b166-5115d4ca7108))
    (fp_line (start 1.6 -0.8) (end 1.6 0.8) (layer "F.Fab") (width 0.1) (tstamp 24115169-fbaf-42f8-8ea2-50b53559acae))
    (fp_line (start -1.6 0.8) (end -1.6 -0.8) (layer "F.Fab") (width 0.1) (tstamp 258b9f3b-aefe-4ade-b794-b2ee337b9778))
    (fp_line (start 1.6 0.8) (end -1.6 0.8) (layer "F.Fab") (width 0.1) (tstamp 41d84172-e457-460b-85ca-33c273a5911b))
    (fp_line (start -1.6 -0.8) (end 1.6 -0.8) (layer "F.Fab") (width 0.1) (tstamp 6845cdaa-47cc-4a5b-a166-50ea14c5a002))
    (pad "1" smd rect locked (at -2 0) (size 2 1.7) (layers "F.Cu" "F.Paste" "F.Mask")
      (net 2 "+5V") (pintype "passive") (tstamp 76831e56-5ebf-41e3-8b2b-c541760b92e8))
    (pad "2" smd rect locked (at 2 0) (size 2 1.7) (layers "F.Cu" "F.Paste" "F.Mask")
      (net 1 "GND") (pintype "passive") (tstamp c59ec8bd-befb-49d9-9e0d-c9b97fbc56b5))
    (model "${FAB}/fab.3dshapes/C_1206.step"
      (offset (xyz 0 0 0))
      (scale (xyz 1 1 1))
      (rotate (xyz 0 0 0))
    )
  )

  (gr_arc (start 133.5 75) (mid 133.93934 73.93934) (end 135 73.5) (layer "Edge.Cuts") (width 0.1) (tstamp 1d889095-2611-49bc-9b77-459a3e591157))
  (gr_line (start 131.9 84) (end 132 84) (layer "Edge.Cuts") (width 0.1) (tstamp 2496edf9-aa28-473d-9bd2-44c746fddc77))
  (gr_line (start 133.5 82.5) (end 133.5 75) (layer "Edge.Cuts") (width 0.1) (tstamp 2df19696-ff1f-49c6-a0d5-fbdfa5edb157))
  (gr_line (start 135 73.5) (end 168.5 73.5) (layer "Edge.Cuts") (width 0.1) (tstamp 2ebdd2ff-16e5-46a5-8f3e-7bdba19db3a8))
  (gr_arc (start 168.5 73.5) (mid 169.207107 73.792893) (end 169.5 74.5) (layer "Edge.Cuts") (width 0.1) (tstamp 39ef8f0e-d902-4c0f-985f-77b795cb13eb))
  (gr_arc (start 171 84) (mid 169.93934 83.56066) (end 169.5 82.5) (layer "Edge.Cuts") (width 0.1) (tstamp 917600de-ecca-4582-b9d8-1d65f62cc210))
  (gr_line (start 131.9 110.606766) (end 171.1 110.606766) (layer "Edge.Cuts") (width 0.1) (tstamp 96d9fe84-87d1-45df-8f3c-8c892b6d193e))
  (gr_arc (start 131.9 110.606766) (mid 118.596617 97.303383) (end 131.9 84) (layer "Edge.Cuts") (width 0.1) (tstamp 9bc1e018-c9f5-4237-859a-fd0ee19c8b8b))
  (gr_line (start 169.5 74.5) (end 169.5 82.5) (layer "Edge.Cuts") (width 0.1) (tstamp 9caa2434-3123-4d2e-85bc-fc3af258a2f7))
  (gr_arc (start 171.1 84) (mid 184.403383 97.303383) (end 171.1 110.606766) (layer "Edge.Cuts") (width 0.1) (tstamp c374deab-14b4-4fa7-a351-deb1ef4ca920))
  (gr_line (start 171 84) (end 171.1 84) (layer "Edge.Cuts") (width 0.1) (tstamp c3fd3700-1c21-4b34-be4b-4893f2e183fe))
  (gr_arc locked (start 133.5 82.5) (mid 133.06066 83.56066) (end 132 84) (layer "Edge.Cuts") (width 0.1) (tstamp fced1ff5-2b64-443a-8c69-5bf223c00e64))
  (gr_text "BOOMBOX" (at 170.688 106.2) (layer "F.Cu") (tstamp 5d8ae4f1-32e6-4d04-9f9c-12150b2ec7ca)
    (effects (font (size 1.5 1.5) (thickness 0.3)))
  )

  (segment (start 176.489511 97.400489) (end 174.63 99.26) (width 0.4) (layer "F.Cu") (net 1) (tstamp 01d2c22a-78a4-4c97-8e77-7faffa34f8a4))
  (segment (start 134.155 97.97) (end 133.400978 97.97) (width 0.4) (layer "F.Cu") (net 1) (tstamp 11185efb-1141-4623-8622-a07f7d4b5050))
  (segment (start 131.970489 99.400489) (end 131.970489 101.619511) (width 0.4) (layer "F.Cu") (net 1) (tstamp 17977612-13a5-491e-b644-1e796cb78a03))
  (segment (start 126.110969 100.809991) (end 126.110969 94.232197) (width 0.4) (layer "F.Cu") (net 1) (tstamp 21b1e548-150f-43a0-aceb-cef2a6564efb))
  (segment (start 129.105 97.97) (end 134.155 97.97) (width 0.4) (layer "F.Cu") (net 1) (tstamp 242d044e-75a7-409e-9635-f639b451ccb5))
  (segment (start 151.13 89.662) (end 148.59 89.662) (width 0.4) (layer "F.Cu") (net 1) (tstamp 2f565050-c0f9-4c65-96fb-b04d1f2020a1))
  (segment (start 157.85 105) (end 157.85 103.7) (width 0.4) (layer "F.Cu") (net 1) (tstamp 370dd16f-9042-483c-8f80-f1d189191773))
  (segment (start 143.5 100.076) (end 143.5 106) (width 0.4) (layer "F.Cu") (net 1) (tstamp 48a0f1d4-2965-426f-ba92-ce4cedf82740))
  (segment (start 126.920489 101.619511) (end 126.110969 100.809991) (width 0.4) (layer "F.Cu") (net 1) (tstamp 53631e17-2dab-4c3f-b6f1-52af0e49673b))
  (segment (start 131.102649 85.852) (end 151.13 85.852) (width 0.4) (layer "F.Cu") (net 1) (tstamp 54303004-3cc8-425e-be8c-50cd3944a0b9))
  (segment (start 143.5 106) (end 157.85 106) (width 0.4) (layer "F.Cu") (net 1) (tstamp 58aee856-2d14-45df-88c9-c3a7782858bb))
  (segment (start 167.63 99.26) (end 163.512 103.378) (width 0.4) (layer "F.Cu") (net 1) (tstamp 5907996c-54f1-4ea3-88cd-ebb95ba716c4))
  (segment (start 150.62 91.946) (end 150.62 91.184) (width 0.4) (layer "F.Cu") (net 1) (tstamp 5cab0e58-cf61-4cdd-b001-69ea2ee82cf1))
  (segment (start 134.155 97.97) (end 131.289511 97.97) (width 0.4) (layer "F.Cu") (net 1) (tstamp 6e96a761-a052-4baa-a219-21a5295f22c0))
  (segment (start 150.62 91.184) (end 148.59 89.154) (width 0.4) (layer "F.Cu") (net 1) (tstamp 7166d309-3903-43a0-8152-4a638a634bae))
  (segment (start 163.512 103.378) (end 158.084004 103.378) (width 0.4) (layer "F.Cu") (net 1) (tstamp 71919fe8-1528-4ba1-9e36-ff2f12e94127))
  (segment (start 145.288 100.076) (end 143.5 100.076) (width 0.4) (layer "F.Cu") (net 1) (tstamp 79c2f66b-c7f1-4be3-b387-dce2e5a43d2c))
  (segment (start 136.350978 106) (end 143.5 106) (width 0.4) (layer "F.Cu") (net 1) (tstamp 823ddad1-8ff8-43de-9013-4f2181a5d7eb))
  (segment (start 131.970489 101.619511) (end 136.350978 106) (width 0.4) (layer "F.Cu") (net 1) (tstamp 8543e845-678b-4e5d-a1a0-48a72bffa936))
  (segment (start 153.416 96.774) (end 153.513372 96.871372) (width 0.4) (layer "F.Cu") (net 1) (tstamp 8ac1f756-a913-48e4-9e13-ba32d960e805))
  (segment (start 158.084004 103.378) (end 158.07 103.363996) (width 0.4) (layer "F.Cu") (net 1) (tstamp 9077a711-dec7-4803-abb3-abe2205e64df))
  (segment (start 157.85 106) (end 157.85 104.1) (width 0.4) (layer "F.Cu") (net 1) (tstamp 95be378d-cba8-455b-adca-f095ef3f89fe))
  (segment (start 133.400978 97.97) (end 131.970489 99.400489) (width 0.4) (layer "F.Cu") (net 1) (tstamp 95dc8037-eb4b-462f-a95b-5126c6e33381))
  (segment (start 148.59 89.662) (end 148.59 89.154) (width 0.4) (layer "F.Cu") (net 1) (tstamp 965c3d13-3c57-4a50-8293-68c57b202f5d))
  (segment (start 131.289511 97.97) (end 131.289511 101.619511) (width 0.4) (layer "F.Cu") (net 1) (tstamp 96d219c8-2774-4004-a699-7693333e38c0))
  (segment (start 167.912 87.381) (end 172.471 87.381) (width 0.4) (layer "F.Cu") (net 1) (tstamp 97a62727-2224-4436-9718-c92ce9f8a90b))
  (segment (start 126.832197 93.510969) (end 129.889031 93.510969) (width 0.4) (layer "F.Cu") (net 1) (tstamp 98a8909f-3c4e-4672-a677-4060fe62ab03))
  (segment (start 150.62 93.191372) (end 150.62 91.946) (width 0.4) (layer "F.Cu") (net 1) (tstamp b7a41e80-8646-4e92-a2ed-3746f0a236e3))
  (segment (start 153.513372 96.871372) (end 156.025 96.871372) (width 0.4) (layer "F.Cu") (net 1) (tstamp bbb1be13-1e1f-4e82-b777-7279da134a5f))
  (segment (start 167.63 99.26) (end 174.63 99.26) (width 0.4) (layer "F.Cu") (net 1) (tstamp c01df309-4c59-472c-916c-12bd5d8f66eb))
  (segment (start 129.889031 93.510969) (end 130.162489 93.237511) (width 0.4) (layer "F.Cu") (net 1) (tstamp c45bd175-6ae3-448d-ac24-898acee02b68))
  (segment (start 176.489511 91.399511) (end 176.489511 97.400489) (width 0.4) (layer "F.Cu") (net 1) (tstamp cdbc9cd2-4f89-403d-ab88-4a78571cb222))
  (segment (start 131.289511 101.619511) (end 126.920489 101.619511) (width 0.4) (layer "F.Cu") (net 1) (tstamp d12b3cd6-ee6f-48c5-8669-959956fdcabe))
  (segment (start 126.110969 94.232197) (end 126.832197 93.510969) (width 0.4) (layer "F.Cu") (net 1) (tstamp d12ed2ab-4e0e-4c97-bcc2-994d715c97af))
  (segment (start 130.162489 93.237511) (end 130.162489 86.79216) (width 0.4) (layer "F.Cu") (net 1) (tstamp e1f65a1f-65d6-44be-88e2-baa305773aa2))
  (segment (start 172.471 87.381) (end 176.489511 91.399511) (width 0.4) (layer "F.Cu") (net 1) (tstamp e2ed9491-2c94-47cc-8b11-7e456597f42a))
  (segment (start 158.07 104.648) (end 158.07 103.363996) (width 0.4) (layer "F.Cu") (net 1) (tstamp e4ce16b5-e6dc-4b63-b2c2-1f73157c57ae))
  (segment (start 151.13 85.852) (end 151.13 89.662) (width 0.4) (layer "F.Cu") (net 1) (tstamp f205256d-b400-41c9-b020-0e6dd4c1a1c5))
  (segment (start 130.162489 86.79216) (end 131.102649 85.852) (width 0.4) (layer "F.Cu") (net 1) (tstamp f4ae2ad5-8f30-4767-ac26-3ec21c3b5a99))
  (via (at 145.288 100.076) (size 1.6) (drill 0.8) (layers "F.Cu" "B.Cu") (net 1) (tstamp 4273ddce-135c-4ee5-b305-b8d9300afb9a))
  (via (at 153.416 96.774) (size 1.6) (drill 0.8) (layers "F.Cu" "B.Cu") (net 1) (tstamp ca536854-a715-4cac-be6a-7de4bf184f9c))
  (segment (start 153.416 96.774) (end 148.59 96.774) (width 0.4) (layer "B.Cu") (net 1) (tstamp 3d899c29-479b-4f14-8ba9-5c0adf3dc420))
  (segment (start 148.59 96.774) (end 145.288 100.076) (width 0.4) (layer "B.Cu") (net 1) (tstamp 54b3b3a4-dfe8-4221-9896-eba1afd9cfc3))
  (segment (start 139.518 90.067) (end 134.155 95.43) (width 0.4) (layer "F.Cu") (net 2) (tstamp 0954e557-d3a0-4c0f-8cd1-48b5fafaf758))
  (segment (start 145.02 89.584) (end 144.59 89.154) (width 0.4) (layer "F.Cu") (net 2) (tstamp 4fd26fd0-4ca4-46eb-b069-085cfa96aad2))
  (segment (start 162.306 98.552) (end 160.625372 96.871372) (width 0.4) (layer "F.Cu") (net 2) (tstamp 556e5385-3c77-4126-985d-d18e9f105d43))
  (segment (start 139.518 87.586) (end 143.022 87.586) (width 0.4) (layer "F.Cu") (net 2) (tstamp 5a725d07-15c4-46fc-80d4-1d037f98d24e))
  (segment (start 143.022 87.586) (end 144.59 89.154) (width 0.4) (layer "F.Cu") (net 2) (tstamp 68e32472-fb21-4185-bb3f-94164060ac61))
  (segment (start 127.434 100.51) (end 129.105 100.51) (width 0.4) (layer "F.Cu") (net 2) (tstamp 84a5d905-e8da-442b-be14-2899b8c0c5c0))
  (segment (start 145.02 93.191372) (end 141.451372 93.191372) (width 0.4) (layer "F.Cu") (net 2) (tstamp 8adeb635-faa1-49e3-b279-d75817293c98))
  (segment (start 126.920489 94.567511) (end 126.920489 99.996489) (width 0.4) (layer "F.Cu") (net 2) (tstamp 9674cb5b-b70b-4be2-b10e-9d5800483e91))
  (segment (start 141.451372 93.191372) (end 140.97 92.71) (width 0.4) (layer "F.Cu") (net 2) (tstamp b78d9f25-2ee3-4e9b-b8f2-5389b6f09924))
  (segment (start 160.625372 96.871372) (end 158.335 96.871372) (width 0.4) (layer "F.Cu") (net 2) (tstamp cf7767bd-6bdc-4dd6-8d40-8eefa74a07f1))
  (segment (start 145.02 93.191372) (end 145.02 89.584) (width 0.4) (layer "F.Cu") (net 2) (tstamp d191d65b-2b60-4c62-afd3-e2066196da58))
  (segment (start 126.920489 99.996489) (end 127.434 100.51) (width 0.4) (layer "F.Cu") (net 2) (tstamp e6e5f028-6504-4ad5-8823-4ca3ef123f99))
  (segment (start 134.155 95.43) (end 133.045489 94.320489) (width 0.4) (layer "F.Cu") (net 2) (tstamp ec001476-5bbb-483c-92e9-026d98361efe))
  (segment (start 139.518 87.586) (end 139.518 90.067) (width 0.4) (layer "F.Cu") (net 2) (tstamp efd43281-d4c3-41ed-a904-f2ac971787c1))
  (segment (start 127.167511 94.320489) (end 126.920489 94.567511) (width 0.4) (layer "F.Cu") (net 2) (tstamp f0e773ab-f653-431f-9199-11e870a308fb))
  (segment (start 133.045489 94.320489) (end 127.167511 94.320489) (width 0.4) (layer "F.Cu") (net 2) (tstamp fef518b3-7e85-4de6-b0be-c270acf52a9d))
  (via (at 162.306 98.552) (size 1.6) (drill 0.8) (layers "F.Cu" "B.Cu") (net 2) (tstamp 2a864ed2-a8d6-4148-b316-7b28c414094f))
  (via (at 140.97 92.71) (size 1.6) (drill 0.8) (layers "F.Cu" "B.Cu") (net 2) (tstamp f0684099-0738-47a4-a8fb-5ac3c066eb05))
  (segment (start 156.972 93.218) (end 141.478 93.218) (width 0.4) (layer "B.Cu") (net 2) (tstamp 36be8180-7b2a-4789-a23b-3afdcc518663))
  (segment (start 162.306 98.552) (end 156.972 93.218) (width 0.4) (layer "B.Cu") (net 2) (tstamp 59220f89-09a0-435a-92b0-b13c1d6b0984))
  (segment (start 141.478 93.218) (end 140.97 92.71) (width 0.4) (layer "B.Cu") (net 2) (tstamp aeb96585-4632-427a-8b0d-b761fab4a80b))
  (segment (start 155.409351 100.076) (end 157.988 100.076) (width 0.4) (layer "F.Cu") (net 3) (tstamp 347b7c17-d89e-4346-b891-cd1362ec080c))
  (segment (start 131.572 87.376) (end 131.782 87.586) (width 0.4) (layer "F.Cu") (net 3) (tstamp 66ffefd4-d16a-40eb-ad0b-32276fff563d))
  (segment (start 152.77 104.1) (end 152.77 102.715351) (width 0.4) (layer "F.Cu") (net 3) (tstamp 6e799104-5a13-4341-83c0-5771efcf6c77))
  (segment (start 152.77 102.715351) (end 155.409351 100.076) (width 0.4) (layer "F.Cu") (net 3) (tstamp ceace5ea-676b-4bd2-92df-ff6ccf8bb84d))
  (segment (start 131.782 87.586) (end 135.918 87.586) (width 0.4) (layer "F.Cu") (net 3) (tstamp f1a133e7-e470-483b-84cb-d1e76b699fd5))
  (via (at 157.988 100.076) (size 1.6) (drill 0.8) (layers "F.Cu" "B.Cu") (net 3) (tstamp 5d1c8980-21de-40b9-9e47-eb015c33ff83))
  (via (at 131.572 87.376) (size 1.6) (drill 0.8) (layers "F.Cu" "B.Cu") (net 3) (tstamp d58a2902-a419-4cb8-b7fd-bd9c672ff9e5))
  (segment (start 157.988 100.076) (end 155.448 102.616) (width 0.4) (layer "B.Cu") (net 3) (tstamp 21084959-c92c-48e6-93e2-60ba3a80c789))
  (segment (start 131.572 91.948) (end 131.572 87.376) (width 0.4) (layer "B.Cu") (net 3) (tstamp 6d0b23de-e517-4db8-b235-fb5e8336b29a))
  (segment (start 155.448 103.378) (end 143.002 103.378) (width 0.4) (layer "B.Cu") (net 3) (tstamp a0e5a072-2248-4f80-ad3f-95bbe4ceba4c))
  (segment (start 155.448 102.616) (end 155.448 103.378) (width 0.4) (layer "B.Cu") (net 3) (tstamp a83248a4-8b8e-47d4-be0d-6e561f7c300f))
  (segment (start 143.002 103.378) (end 131.572 91.948) (width 0.4) (layer "B.Cu") (net 3) (tstamp d2e0b942-326d-4aca-8492-a0b435792f67))
  (segment (start 152.02 94.461372) (end 154.39 92.091372) (width 0.4) (layer "F.Cu") (net 4) (tstamp 4b0cf27b-995e-4761-aae1-3f92c73a82a1))
  (segment (start 154.39 92.091372) (end 154.39 87.376) (width 0.4) (layer "F.Cu") (net 4) (tstamp 6436a87c-a4de-4bd5-a9aa-a97c72cd0eaa))
  (segment (start 150.62 94.461372) (end 152.02 94.461372) (width 0.4) (layer "F.Cu") (net 4) (tstamp 8f5e34ed-ab22-4059-af7d-dccbdd879e9d))
  (segment (start 158.39 87.376) (end 163.907 87.376) (width 0.4) (layer "F.Cu") (net 5) (tstamp 731d81c5-5377-4cc1-a827-55fe34925aaf))
  (segment (start 163.907 87.376) (end 163.912 87.381) (width 0.4) (layer "F.Cu") (net 5) (tstamp dee92187-8b7b-4f6d-a1a5-3012ab6e8bfc))
  (segment (start 150.23 100.154345) (end 150.23 104.1) (width 0.4) (layer "F.Cu") (net 7) (tstamp 46cf4429-69bd-48e0-a71c-611356ffaed5))
  (segment (start 147.301408 95.731372) (end 147.301408 97.225753) (width 0.4) (layer "F.Cu") (net 7) (tstamp 891fe7c8-3aab-4bcf-acb4-8321bf4593ce))
  (segment (start 145.02 95.731372) (end 147.301408 95.731372) (width 0.4) (layer "F.Cu") (net 7) (tstamp bb9c92c8-66e6-4c9e-8ac8-c28dbd5e3021))
  (segment (start 147.301408 97.225753) (end 150.23 100.154345) (width 0.4) (layer "F.Cu") (net 7) (tstamp e221f1be-a480-453a-a2fc-b3f2381ff314))
  (segment (start 148.881655 96.166785) (end 147.176242 94.461372) (width 0.4) (layer "F.Cu") (net 8) (tstamp 4013c1d6-d374-4b03-9cc6-db6935bc5a6a))
  (segment (start 153.416 100.076) (end 151.296489 100.076) (width 0.4) (layer "F.Cu") (net 8) (tstamp 48b5ad2f-1a70-4473-8890-df5ee6c0f1e0))
  (segment (start 147.69 100.167978) (end 147.7 100.157978) (width 0.4) (layer "F.Cu") (net 8) (tstamp 498d81a2-f7d7-4d4d-8a20-49b1c1e1802d))
  (segment (start 147.69 104.1) (end 147.69 100.167978) (width 0.4) (layer "F.Cu") (net 8) (tstamp 49f0bdd8-38e3-4e3f-a4ae-265bded7866b))
  (segment (start 148.881655 97.661166) (end 148.881655 96.166785) (width 0.4) (layer "F.Cu") (net 8) (tstamp 7dc0b577-04fa-4a2c-b128-f338ca9cb9db))
  (segment (start 147.176242 94.461372) (end 145.02 94.461372) (width 0.4) (layer "F.Cu") (net 8) (tstamp c52a7461-e915-414e-92e5-d5cd4272a8cb))
  (segment (start 151.296489 100.076) (end 148.881655 97.661166) (width 0.4) (layer "F.Cu") (net 8) (tstamp e383a5f2-6871-46db-8914-f85cae6e3432))
  (via (at 153.416 100.076) (size 1.6) (drill 0.8) (layers "F.Cu" "B.Cu") (net 8) (tstamp 73e8be91-4033-4f00-8ea8-2f07c6d23ae8))
  (via (at 147.7 100.157978) (size 1.6) (drill 0.8) (layers "F.Cu" "B.Cu") (net 8) (tstamp f5dc72e4-18b1-4b32-8ab2-d9180778a10b))
  (segment (start 147.7 100.157978) (end 153.416 100.157978) (width 0.4) (layer "B.Cu") (net 8) (tstamp 240360aa-1de5-4b38-bd48-786f84d99d85))
  (segment (start 153.416 100.076) (end 153.334022 100.157978) (width 0.4) (layer "B.Cu") (net 8) (tstamp 4ed60643-488b-4664-834d-af1e7ee19f3c))
  (segment (start 153.416 100.157978) (end 153.416 100.076) (width 0.4) (layer "B.Cu") (net 8) (tstamp f2a92007-f89e-4184-9e06-289f4e5783de))
  (segment (start 150.62 95.731372) (end 152.172628 95.731372) (width 0.4) (layer "F.Cu") (net 10) (tstamp 19acaf59-9cd2-4377-8277-3f27048883fd))
  (segment (start 159.766 93.726) (end 161.544 95.504) (width 0.4) (layer "F.Cu") (net 10) (tstamp 24d1ee42-5017-414b-9c9e-9d6eea6c5839))
  (segment (start 134.155 100.51) (end 136.398 100.51) (width 0.4) (layer "F.Cu") (net 10) (tstamp 2d60b286-8e45-4314-b5a3-1444ff2b7c4a))
  (segment (start 156.21 93.726) (end 159.766 93.726) (width 0.4) (layer "F.Cu") (net 10) (tstamp 406c2987-1a5e-48cd-9655-1e276b1d4cd5))
  (segment (start 137.179511 96.539511) (end 140.97 96.539511) (width 0.4) (layer "F.Cu") (net 10) (tstamp 5b51415b-28d2-4312-8f51-b257620f011b))
  (segment (start 140.97 96.539511) (end 140.97 95.504) (width 0.4) (layer "F.Cu") (net 10) (tstamp 672e2d7e-66ca-45f5-972f-835d4db73caf))
  (segment (start 130.214511 96.539511) (end 137.179511 96.539511) (width 0.4) (layer "F.Cu") (net 10) (tstamp 6befc196-349b-4960-ac76-99c7f555fe56))
  (segment (start 136.398 100.51) (end 136.398 97.321022) (width 0.4) (layer "F.Cu") (net 10) (tstamp 6c579ba9-5edb-4874-ad48-3026a73e6f65))
  (segment (start 129.105 95.43) (end 130.214511 96.539511) (width 0.4) (layer "F.Cu") (net 10) (tstamp 80d8809b-819f-4ef6-854b-13e691a2327b))
  (segment (start 152.172628 95.731372) (end 155.194 92.71) (width 0.4) (layer "F.Cu") (net 10) (tstamp 84fc7831-c9a0-4e37-8030-d191307c013d))
  (segment (start 161.544 95.504) (end 162.306 95.504) (width 0.4) (layer "F.Cu") (net 10) (tstamp 9d48197e-97af-469c-9683-81ab155b61a9))
  (segment (start 155.194 92.71) (end 156.21 93.726) (width 0.4) (layer "F.Cu") (net 10) (tstamp afd2bc10-e3f8-47f8-88de-347cd247a2be))
  (segment (start 136.398 97.321022) (end 137.179511 96.539511) (width 0.4) (layer "F.Cu") (net 10) (tstamp e6de789f-9c1b-4cab-b01d-0eca71d7fc7e))
  (via (at 140.97 95.504) (size 1.6) (drill 0.8) (layers "F.Cu" "B.Cu") (net 10) (tstamp 7672f1ea-ce76-4d3d-95c7-963a2e67204e))
  (via (at 162.306 95.504) (size 1.6) (drill 0.8) (layers "F.Cu" "B.Cu") (net 10) (tstamp f027d0b6-8ab8-4776-af19-d9f936a0fdaf))
  (segment (start 139.560489 95.504) (end 140.97 95.504) (width 0.4) (layer "B.Cu") (net 10) (tstamp 4547def6-9100-4a3e-b868-171b915d6974))
  (segment (start 162.306 95.504) (end 162.306 94.703351) (width 0.4) (layer "B.Cu") (net 10) (tstamp 69795644-487b-40eb-9cbd-9546249a93de))
  (segment (start 140.500649 91.186) (end 139.560489 92.12616) (width 0.4) (layer "B.Cu") (net 10) (tstamp 7e6f2713-d567-42bb-93f3-8a4ad20b74cf))
  (segment (start 162.306 94.703351) (end 158.788649 91.186) (width 0.4) (layer "B.Cu") (net 10) (tstamp 97bd8d06-17bf-47f1-b6b3-2820a0dbbdbd))
  (segment (start 158.788649 91.186) (end 140.500649 91.186) (width 0.4) (layer "B.Cu") (net 10) (tstamp 9f481bd3-ee9d-4428-a73c-d0f74a546eff))
  (segment (start 139.560489 92.12616) (end 139.560489 95.504) (width 0.4) (layer "B.Cu") (net 10) (tstamp afa27d57-3a7e-4e97-9b0b-c20bf5f6a697))
  (segment (start 160.967372 91.371372) (end 157.175 91.371372) (width 0.4) (layer "F.Cu") (net 11) (tstamp 2c355fd7-1989-4f8b-9cb3-5f4ec9c814bd))
  (segment (start 142.520628 97.001372) (end 140.97 98.552) (width 0.4) (layer "F.Cu") (net 11) (tstamp 4dcc019d-2d67-47a1-9de4-28dde0128a05))
  (segment (start 145.02 97.001372) (end 142.520628 97.001372) (width 0.4) (layer "F.Cu") (net 11) (tstamp 7471887a-ebf9-49ee-a1ad-1c39f6d6b174))
  (segment (start 162.306 92.71) (end 160.967372 91.371372) (width 0.4) (layer "F.Cu") (net 11) (tstamp f5a003ce-86b7-4b6a-9aa7-11f92d650ba3))
  (via (at 140.97 98.552) (size 1.6) (drill 0.8) (layers "F.Cu" "B.Cu") (net 11) (tstamp a8cd7333-ea99-45d7-82d1-e8ccf84c890d))
  (via (at 162.306 92.71) (size 1.6) (drill 0.8) (layers "F.Cu" "B.Cu") (net 11) (tstamp efa724f4-c26e-4b0e-94d3-b1e88ef569d2))
  (segment (start 145.288 94.234) (end 155.448 94.234) (width 0.4) (layer "B.Cu") (net 11) (tstamp 429a9146-e7d5-4850-a31a-363ba954d90a))
  (segment (start 164.592 100.838) (end 164.592 94.996) (width 0.4) (layer "B.Cu") (net 11) (tstamp 6d4ab13e-96c3-40ab-b6f0-2b64ac7e449a))
  (segment (start 140.97 98.552) (end 145.288 94.234) (width 0.4) (layer "B.Cu") (net 11) (tstamp 710cc9e2-f4ef-44be-a6b8-60e3646e784d))
  (segment (start 164.592 94.996) (end 162.306 92.71) (width 0.4) (layer "B.Cu") (net 11) (tstamp 724878e6-c989-4eb0-ab70-4d66aadf0e09))
  (segment (start 155.448 94.234) (end 162.052 100.838) (width 0.4) (layer "B.Cu") (net 11) (tstamp ddd78b77-dcca-4e62-8975-5c56d9919236))
  (segment (start 162.052 100.838) (end 164.592 100.838) (width 0.4) (layer "B.Cu") (net 11) (tstamp f5773743-6003-4307-aa4c-55f336627a90))
  (segment (start 162.928489 99.961511) (end 167.63 95.26) (width 0.4) (layer "F.Cu") (net 12) (tstamp 1099f3e8-81d8-4a1c-b06f-f686a5f7cd30))
  (segment (start 161.72216 99.961511) (end 162.928489 99.961511) (width 0.4) (layer "F.Cu") (net 12) (tstamp 3fd657d6-5b7f-40da-b33b-41956fce29b6))
  (segment (start 167.63 95.26) (end 174.63 95.26) (width 0.4) (layer "F.Cu") (net 12) (tstamp 5eb5cf9c-a6af-4b14-88b5-3b2c4c5262b6))
  (segment (start 152.099511 98.480883) (end 160.241532 98.480883) (width 0.4) (layer "F.Cu") (net 12) (tstamp 7599a718-e8cc-4641-9ca8-920a61e77527))
  (segment (start 160.241532 98.480883) (end 161.72216 99.961511) (width 0.4) (layer "F.Cu") (net 12) (tstamp d63397a7-967f-47e5-9a2b-248e3435c6c3))
  (segment (start 150.62 97.001372) (end 152.099511 98.480883) (width 0.4) (layer "F.Cu") (net 12) (tstamp f6898dc4-42a0-47a3-83bb-75873947b4bf))

)
