,,,,OFF - 00,,,,,ON - 01,,,,,MODE A - 10,,,
,,,,,,,,,,,,,,,,,
,,,,INPUT,OUTPUT,,,,INPUT,OUTPUT,,,,INPUT,OUTPUT,,
,,,,,,,,,,,,,,,,,
DEVICE 1: 00,INCOMING BYTE ,,‘0’,00110000,00110000,,,4’,00110100,00110100,,,‘8’,00111000,00111000,,
,BITMASK,,&,00000011,00001100,,,&,00000011,00001100,& >> 2,,&,00000011,00001100,& >> 2,
,ADDRESS,,,00000000,00000000,,,,00000000,00000001,,,,00000000,00000010,,
,,,,,,,,,,,,,,,,,
DEVICE 2: 01,INCOMING BYTE ,,1’,00110001,00110001,,,5’,00110101,00110101,,,9’,00111001,00111001,,
,BITMASK,,&,00000011,00001100,,,&,00000011,00001100,,,&,00000011,00001100,& >> 2,
,ADDRESS,,,00000001,00000000,,,,00000001,00000001,,,,00000001,00000010,,
,,,,,,,,,,,,,,,,,
DEVICE 3: 10,INCOMING BYTE ,,2’,00110010,00110010,,,6’,00110110,00110110,,,‘:’,00111010,00111010,,
,BITMASK,,,00000011,00001100,,,,00000011,00001100,& >> 2,,,00000011,00001100,& >> 2,
,ADDRESS,,,00000010,00000000,,,,00000010,00000001,,,,00000010,00000010,,
,,,,,,,,,,,,,,,,,
DEVICE 4: 11,INCOMING BYTE ,,3’,00110011,00110011,,,7’,00110111,00110111,,,‘;’,00111011,00111011,,
,BITMASK,,&,00000011,00001100,,,&,00000011,00001100,& >> 2,,&,00000011,00001100,& >> 2,
,ADDRESS,,,00000011,00000000,,,,00000011,00000001,,,,00000011,00000010,,
,,,,,,,,,,,,,,,,,
,,,,,,,,,,Needs at least 100 bit mask,,,,,Needs 1000 bit mask,,


,,Device 1 - 00,Device 2 - 01,Device 3 - 10,Device 4 - 11,,,,,
Input Address,,00000000,00000001,00000010,00000011,,,,,
,,,,,,,,,,
ASCII,,,,,,,,,,
0,00110000,00110000,,,,,,,,
1,00110001,,00110001,,,,,,,
2,00110010,00110010,,00110010,,,,,,
3,00110011,,00110011,00110011,00110011,,,,,
4,00110100,00110100,,,,,,,,
5,00110101,,00110101,,,,,,,
6,00110110,00110110,,00110110,,,,,,
7,00110111,,00110111,00110111,00110111,,,,,
8,00111000,00111000,,,,,,,,
9,00111001,,00111001,,,,,,,
:,00111010,00111010,,00111010,,,,,,
;,00111011,,00111011,00111011,00111011,,,,,
