%TF.GenerationSoftware,KiCad,Pcbnew,(6.0.2-0)*%
%TF.CreationDate,2022-05-09T17:37:34+03:00*%
%TF.ProjectId,Network - controller,4e657477-6f72-46b2-902d-20636f6e7472,rev?*%
%TF.SameCoordinates,Original*%
%TF.FileFunction,Profile,NP*%
%FSLAX46Y46*%
G04 Gerber Fmt 4.6, Leading zero omitted, Abs format (unit mm)*
G04 Created by KiCad (PCBNEW (6.0.2-0)) date 2022-05-09 17:37:34*
%MOMM*%
%LPD*%
G01*
G04 APERTURE LIST*
%TA.AperFunction,Profile*%
%ADD10C,0.100000*%
%TD*%
G04 APERTURE END LIST*
D10*
X158232233Y-145732233D02*
X158232233Y-83232233D01*
X123232233Y-148232233D02*
X155732233Y-148232233D01*
X120732233Y-83232233D02*
X120732233Y-145732233D01*
X123232233Y-80732233D02*
X155732233Y-80732233D01*
X120732233Y-145732233D02*
G75*
G03*
X123232233Y-148232233I2500000J0D01*
G01*
X158232233Y-83232233D02*
G75*
G03*
X155732233Y-80732233I-2500000J0D01*
G01*
X155732233Y-148232233D02*
G75*
G03*
X158232233Y-145732233I0J2500000D01*
G01*
X123232233Y-80732233D02*
G75*
G03*
X120732233Y-83232233I0J-2500000D01*
G01*
M02*
