%TF.GenerationSoftware,KiCad,Pcbnew,(6.0.2-0)*%
%TF.CreationDate,2022-05-12T20:04:48+03:00*%
%TF.ProjectId,RGB_unit,5247425f-756e-4697-942e-6b696361645f,rev?*%
%TF.SameCoordinates,Original*%
%TF.FileFunction,Copper,L2,Bot*%
%TF.FilePolarity,Positive*%
%FSLAX46Y46*%
G04 Gerber Fmt 4.6, Leading zero omitted, Abs format (unit mm)*
G04 Created by KiCad (PCBNEW (6.0.2-0)) date 2022-05-12 20:04:48*
%MOMM*%
%LPD*%
G01*
G04 APERTURE LIST*
%TA.AperFunction,Profile*%
%ADD10C,0.100000*%
%TD*%
%TA.AperFunction,ComponentPad*%
%ADD11C,2.200000*%
%TD*%
G04 APERTURE END LIST*
D10*
X145267767Y-126500000D02*
X164482233Y-126500000D01*
X166982233Y-75000000D02*
X166982233Y-124000000D01*
X164482233Y-126500000D02*
G75*
G03*
X166982233Y-124000000I0J2500000D01*
G01*
X142767767Y-124000000D02*
G75*
G03*
X145267767Y-126500000I2500000J0D01*
G01*
X142767767Y-75000000D02*
X142767767Y-124000000D01*
X145267767Y-72500000D02*
X164482233Y-72500000D01*
X166982233Y-75000000D02*
G75*
G03*
X164482233Y-72500000I-2500000J0D01*
G01*
X145267767Y-72500000D02*
G75*
G03*
X142767767Y-75000000I0J-2500000D01*
G01*
D11*
%TO.P,REF\u002A\u002A,*%
%TO.N,*%
X154750000Y-124250000D03*
%TD*%
%TO.P,REF\u002A\u002A,*%
%TO.N,*%
X154750000Y-75200000D03*
%TD*%
M02*
