%TF.GenerationSoftware,KiCad,Pcbnew,(6.0.2-0)*%
%TF.CreationDate,2022-05-09T21:18:08+03:00*%
%TF.ProjectId,RGB_unit,5247425f-756e-4697-942e-6b696361645f,rev?*%
%TF.SameCoordinates,Original*%
%TF.FileFunction,Profile,NP*%
%FSLAX46Y46*%
G04 Gerber Fmt 4.6, Leading zero omitted, Abs format (unit mm)*
G04 Created by KiCad (PCBNEW (6.0.2-0)) date 2022-05-09 21:18:08*
%MOMM*%
%LPD*%
G01*
G04 APERTURE LIST*
%TA.AperFunction,Profile*%
%ADD10C,0.100000*%
%TD*%
G04 APERTURE END LIST*
D10*
X165732233Y-75000000D02*
X165732233Y-123982233D01*
X145750000Y-72500000D02*
X163232233Y-72500000D01*
X143250000Y-75000000D02*
X143250000Y-123982233D01*
X163232233Y-126482233D02*
G75*
G03*
X165732233Y-123982233I0J2500000D01*
G01*
X165732233Y-75000000D02*
G75*
G03*
X163232233Y-72500000I-2500000J0D01*
G01*
X145750000Y-72500000D02*
G75*
G03*
X143250000Y-75000000I0J-2500000D01*
G01*
X145750000Y-126482233D02*
X163232233Y-126482233D01*
X143250000Y-123982233D02*
G75*
G03*
X145750000Y-126482233I2500000J0D01*
G01*
M02*
