%TF.GenerationSoftware,KiCad,Pcbnew,(6.0.2-0)*%
%TF.CreationDate,2022-05-12T19:52:37+03:00*%
%TF.ProjectId,RGB_unit,5247425f-756e-4697-942e-6b696361645f,rev?*%
%TF.SameCoordinates,Original*%
%TF.FileFunction,Copper,L2,Bot*%
%TF.FilePolarity,Positive*%
%FSLAX46Y46*%
G04 Gerber Fmt 4.6, Leading zero omitted, Abs format (unit mm)*
G04 Created by KiCad (PCBNEW (6.0.2-0)) date 2022-05-12 19:52:37*
%MOMM*%
%LPD*%
G01*
G04 APERTURE LIST*
%TA.AperFunction,Profile*%
%ADD10C,0.100000*%
%TD*%
%TA.AperFunction,ComponentPad*%
%ADD11C,2.200000*%
%TD*%
G04 APERTURE END LIST*
D10*
X145267767Y-72500000D02*
G75*
G03*
X142767767Y-75000000I0J-2500000D01*
G01*
X145267767Y-72500000D02*
X164482233Y-72517767D01*
X142750000Y-75000000D02*
X142750000Y-123982233D01*
X166982233Y-75017767D02*
G75*
G03*
X164482233Y-72517767I-2500000J0D01*
G01*
X164500000Y-126482233D02*
G75*
G03*
X167000000Y-123982233I0J2500000D01*
G01*
X167000000Y-75000000D02*
X167000000Y-123982233D01*
X145250000Y-126482233D02*
X164500000Y-126482233D01*
X142750000Y-123982233D02*
G75*
G03*
X145250000Y-126482233I2500000J0D01*
G01*
D11*
%TO.P,REF\u002A\u002A,*%
%TO.N,*%
X154750000Y-124250000D03*
%TD*%
%TO.P,REF\u002A\u002A,*%
%TO.N,*%
X154750000Y-75200000D03*
%TD*%
M02*
